%YAML 1.1
%TAG !u! tag:unity3d.com,2011:
--- !u!114 &11400000
MonoBehaviour:
  m_ObjectHideFlags: 0
  m_CorrespondingSourceObject: {fileID: 0}
  m_PrefabInstance: {fileID: 0}
  m_PrefabAsset: {fileID: 0}
  m_GameObject: {fileID: 0}
  m_Enabled: 1
  m_EditorHideFlags: 0
  m_Script: {fileID: 11500000, guid: 1ee86a8e918446346bff95454bc1eb04, type: 3}
  m_Name: MoveSpeed
  m_EditorClassIdentifier: 
  Icon: {fileID: 21300000, guid: efb02282f82714606817167f8bc958eb, type: 3}
  Name: Fast Legs
  Description: Increase movement speed
  Cost: 1
  _abilityType: 2
  _amountToAdd: 1
  _maxLvl: 3
  _curLvl: 0
